Aula 3 - Tidyverse e Estatística Descritiva
…
Agrupando dados

Vimos anteriormente que, por conta da grande variância, não parece haver um padrão geral no número de línguas utilizadas para cada estudo do WALS. Mas podemos nos perguntar se um padrão não aparece quando observamos a média, variância e desvio padrão do número línguas por area.

Podemos agrupar os dados em termos de uma variável, no caso area, da seguinte forma:

sumario.areas <- wals %>%
  group_by(area)
sumario.areas

## # A tibble: 192 x 3
## # Groups:   area [11]
##    name                                           languages area             
##    <chr>                                              <dbl> <chr>            
##  1 'Want' Complement Subjects                           283 Complex Sentences
##  2 'When' Clauses                                       174 Complex Sentences
##  3 Absence of Common Consonants                         567 Phonology        
##  4 Action Nominal Constructions                         168 Nominal Syntax   
##  5 Adjectives without Nouns                             124 Nominal Syntax   
##  6 Adjoined relative clauses                             10 Word Order       
##  7 Alignment of Case Marking of Full Noun Phrases       190 Simple Clauses   
##  8 Alignment of Case Marking of Pronouns                172 Simple Clauses   
##  9 Alignment of Verbal Person Marking                   380 Simple Clauses   
## 10 Antipassive Constructions                            194 Simple Clauses   
## # ... with 182 more rows
…
